…
  Loading VIX_Index.csv
  Loading UX1_Index.csv
  Loading USGG10YR_Index.csv
  Loading USOHHYTO_Index.csv
Loaded and merged 2632 rows from 2015-09-30 to 2025-10-30
Using start_date from data: 2015-09-30
Using end_date from data: 2025-10-30
Using holdout_date (1 year before end): 2024-10-30
Date range: 2015-09-30 to 2025-10-30
Holdout start: 2024-10-30
==================================================
Engineering features...
Using 36 predictors: dVIX, slope, dSlope, d10Y, dHY, realized_vol_5, realized_vol_20, vix_level, vix_ma, vix_dev, vol_surp, vol_ma_ratio, range, ma_5, ma_20, ma_50, price_ma5_ratio, price_ma20_ratio, ma_cross, rsi, R, R_lag1, R_lag2, R_lag3, R_lag5, cumret_5, cumret_20, vix_realized_ratio, yield_level, yield_ma, yield_dev, hy_level, hy_ma, hy_dev, vix_r_interaction, vol_vol_interaction
Running stationarity tests...
# A tibble: 72 × 6
   variable transformation adf_pvalue adf_stat kpss_pvalue kpss_stat
   <chr>    <chr>               <dbl>    <dbl>       <dbl>     <dbl>
 1 dVIX     level                0.01   -15.3         0.1    0.0107 
 2 dVIX     diff                 0.01   -24.1         0.1    0.00213
 3 slope    level                0.01    -8.14        0.01   0.220  
 4 slope    diff                 0.01   -19.4         0.1    0.00438
 5 dSlope   level                0.01   -19.4         0.1    0.00438
 6 dSlope   diff                 0.01   -26.1         0.1    0.00234
 7 d10Y     level                0.01   -13.6         0.1    0.105  
 8 d10Y     diff                 0.01   -23.8         0.1    0.00192
 9 dHY      level                0.01   -13.7         0.1    0.0319 
10 dHY      diff                 0.01   -20.8         0.1    0.00204
# ℹ 62 more rows
…
  Stability scores for all predictors:
# A tibble: 36 × 2
   predictor           stability
   <chr>                   <dbl>
 1 R_lag5                    1  
 2 cumret_5                  1  
 3 vix_realized_ratio        1  
 4 hy_level                  1  
 5 rsi                       0.8
 6 hy_dev                    0.8
 7 realized_vol_20           0.6
 8 vol_vol_interaction       0.6
 9 price_ma5_ratio           0.4
10 hy_ma                     0.4
# ℹ 26 more rows
…
